<?xml version="1.0" standalone="no"?>
<!DOCTYPE svg PUBLIC "-//W3C//DTD SVG 1.1//EN" "http://www.w3.org/Graphics/SVG/1.1/DTD/svg11.dtd" >
<svg xmlns="http://www.w3.org/2000/svg">
<metadata></metadata>
<defs>
<font id="helvetica-condensedboldRg" horiz-adv-x="987" >
<font-face units-per-em="2048" ascent="1638" descent="-410" />
<missing-glyph horiz-adv-x="422" />
<glyph horiz-adv-x="2048" />
<glyph horiz-adv-x="2048" />
<glyph unicode="&#xd;" horiz-adv-x="0" />
<glyph unicode=" "  horiz-adv-x="422" />
<glyph unicode="&#x09;" horiz-adv-x="422" />
<glyph unicode="&#xa0;" horiz-adv-x="422" />
<glyph unicode="!" horiz-adv-x="658" d="M196 1094q0 -97 5.5 -169t22.5 -255t20 -279h172q11 98 19 170.5t14 138t10 137t4 144.5q0 40 -4 113v428h-263v-428zM200 0h261v271h-261v-271z" />
<glyph unicode="&#x22;" horiz-adv-x="658" d="M29 951h237v546h-237v-546zM391 951h244v546h-244v-546z" />
<glyph unicode="$" d="M56 398q0 -123 38 -216.5t120 -150.5t210 -68v-213h131v221q200 28 285 136q86 107 86 321q0 146 -103 263t-274 200v410q65 -20 87 -69t22 -142h231q0 35 -8 131q-2 109 -84 185q-83 77 -242 95v127h-131v-127q-175 -21 -260.5 -125.5t-85.5 -250.5q0 -101 26 -175.5 t71 -127.5t98 -92q52 -38 155 -103v-457q-56 16 -84 49t-35.5 76.5t-7.5 114.5v43h-243q-2 -19 -2 -55zM322 1143q0 61 27 105t79 53v-367q-59 65 -82.5 104t-23.5 105zM549 170v408q53 -33 85.5 -99t32.5 -137q0 -137 -118 -172z" />
<glyph unicode="%" horiz-adv-x="1647" d="M47 1121q0 -120 19 -197.5t87 -126.5t204 -49q106 0 169.5 29t93.5 80t38 113t8 151q0 121 -18 197.5t-85.5 125.5t-205.5 49q-136 0 -204 -49t-87 -126.5t-19 -196.5zM240 1121q0 80 6 125q7 44 33 70q27 26 82 26q53 0 77 -26q24 -25 29.5 -68t5.5 -127 q0 -85 -5.5 -129t-29.5 -70.5t-77 -26.5q-55 0 -82 27q-26 27 -33 72q-6 45 -6 127zM404 -29h145l227 513l443 1038h-142l-223 -516zM983 369q0 -117 18.5 -193.5t85.5 -126t203 -49.5t203.5 49.5t87.5 126.5q19 78 19 193q0 116 -19.5 194t-86.5 127q-68 50 -204 50 t-203 -50q-67 -49 -85.5 -126t-18.5 -195zM1176 369q0 86 5.5 130t31 69.5t82.5 25.5q51 0 74.5 -25.5t28.5 -69.5t5 -130q0 -85 -5 -128t-28.5 -69t-74.5 -26q-57 0 -82.5 26t-31 69t-5.5 128z" />
<glyph unicode="&#x26;" horiz-adv-x="1317" d="M119 420q0 -126 52.5 -231.5t144 -165.5t202.5 -60q109 0 194 30q85 31 159 104l55 -101h297l-178 301q131 227 131 510h-219q-3 -141 -52 -276l-187 329q233 147 233 379q0 97 -45 169q-45 73 -118.5 111t-156.5 38q-142 0 -243 -81q-101 -80 -101 -249q0 -77 26 -144 q27 -67 87 -184q-93 -66 -154 -133.5t-94 -152.5t-33 -193zM379 445q0 82 38 152.5t105 97.5l243 -416q-90 -88 -185 -88q-93 0 -147 75q-54 76 -54 179zM527 1252q0 48 23.5 72t60.5 24q41 0 76 -33q35 -32 35 -84q0 -89 -113 -180q-11 21 -34.5 63t-35.5 74q-12 33 -12 64 z" />
<glyph unicode="'" horiz-adv-x="514" d="M142 971q92 15 145 53.5t74.5 101t21.5 154.5v242h-241v-266h129q0 -175 -129 -195v-90z" />
<glyph unicode="(" horiz-adv-x="658" d="M102 619q0 -219 27 -377q28 -158 89.5 -305.5t172.5 -336.5h164q-58 131 -94 237t-57.5 216.5t-30.5 222.5q-8 112 -8 255q0 201 12 352q13 152 37.5 273t58.5 212q33 92 80 189h-162q-102 -142 -166 -290.5t-93.5 -308.5t-29.5 -339z" />
<glyph unicode=")" horiz-adv-x="658" d="M102 1557q58 -128 94.5 -237t57.5 -215t30 -222t9 -260q0 -269 -22 -451q-21 -184 -61 -313t-104 -259h160q73 102 129.5 216t91.5 230q36 115 53 235t17 244q0 179 -34 357q-34 179 -99.5 349.5t-157.5 325.5h-164z" />
<glyph unicode="*" d="M150 1180l176 -55q10 -3 21 -6.5t18 -4.5q-11 -11 -18 -32l-115 -156l133 -90l108 149q6 8 11.5 15.5t8.5 11.5q3 5 5 10q17 -25 20 -28l111 -158l132 98l-109 152q-4 9 -13 20.5t-14 18.5q12 0 33 8l182 51l-55 158l-172 -54q-7 -3 -45 -16v37v188h-160v-188 q0 -29 4 -45q-6 6 -10.5 8t-11.5 4.5t-12 3.5l-181 53z" />
<glyph unicode="," horiz-adv-x="658" d="M196 0h142q0 -91 -37 -143.5t-105 -59.5v-92q131 15 198 92t67 207v267h-265v-271z" />
<glyph unicode="-" horiz-adv-x="658" d="M94 514h474v234h-474v-234z" />
<glyph unicode="." horiz-adv-x="658" d="M196 0h265v271h-265v-271z" />
<glyph unicode="/" horiz-adv-x="514" d="M-41 -191h174l189 675l287 1038h-177l-192 -678z" />
<glyph unicode="0" d="M90 404q0 -154 47.5 -250t137 -139.5t219.5 -43.5q198 0 300.5 102.5t102.5 330.5v686q0 231 -102 332q-103 102 -301 102q-200 0 -302 -101.5t-102 -332.5v-686zM369 404v686q0 120 31 168q32 47 90 47q131 0 131 -215v-686q0 -213 -131 -213q-59 0 -90 45 q-31 46 -31 168z" />
<glyph unicode="1" d="M78 1055v201q164 0 271 59q108 59 145 207h205v-1522h-283v1055h-338z" />
<glyph unicode="2" d="M53 0q0 125 25 258q36 179 268 428l135 146q81 88 110 140q29 53 29 153q0 180 -134 180q-96 0 -124 -64q-19 -44 -23.5 -89.5t-4.5 -137.5h-268q0 90 3.5 137.5t18.5 111.5q22 98 118 179q96 82 292 82q117 0 208 -48q90 -47 140.5 -136t50.5 -207q0 -123 -42.5 -224 t-133.5 -192l-219 -229q-145 -150 -149 -267h526v-221h-826z" />
<glyph unicode="3" d="M47 412v92h262q3 -63 5 -114t14 -96t45 -74q34 -29 96 -29q101 0 126 72q26 73 26 216q0 127 -33 162q-53 62 -254 62v219q5 0 57 3t57.5 4t10.5 2q28 4 51 15q45 21 68.5 70t23.5 109q0 73 -37 126.5t-104 53.5q-126 0 -131 -121v-111h-268l-2 45q0 406 401 406 q205 0 307 -102q103 -102 103 -285q0 -74 -20 -141.5t-64 -115.5q-30 -33 -71 -49q-40 -16 -42 -16q104 -11 163.5 -103.5t59.5 -262.5q0 -477 -436 -477q-256 0 -335 131t-79 309z" />
<glyph unicode="4" d="M37 307v224l457 966h313v-966h131v-223l-131 -1v-307h-281v307h-489zM244 531h282l2 612z" />
<glyph unicode="5" d="M62 479q0 -138 20 -232q21 -94 69 -155t132 -90q84 -31 211 -31q229 0 322.5 132.5t93.5 404.5q0 229 -78 378q-77 148 -297 148q-70 0 -120 -18.5t-97 -64.5l16 325h510v221h-725l-41 -799h251q7 50 46 81q39 32 94 32q78 0 120 -64t42 -237q-2 -156 -28.5 -237.5 t-133.5 -81.5q-53 3 -82 30.5t-41 69.5q-11 41 -14 93q-2 51 -3 95h-267z" />
<glyph unicode="6" d="M74 547v365q0 238 46 371q46 134 140 187q94 54 250 54q110 0 194 -36q83 -35 130 -111t47 -193h-256q-4 54 -26 87q-22 34 -97 34q-56 -4 -87.5 -34t-43.5 -72t-14 -95q-3 -52 -4 -86v-100q40 50 86 77q47 27 133 27q176 0 257 -117.5t81 -357.5q0 -199 -36 -324 t-127 -188q-90 -63 -249 -63q-164 0 -257 67q-93 68 -130 193.5t-37 314.5zM357 439q1 -82 10.5 -134.5t41 -83t93.5 -30.5q82 2 105.5 58t23.5 179v160q0 99 -26 156t-111 57q-64 0 -94 -39t-36.5 -94t-6.5 -141v-88z" />
<glyph unicode="7" d="M53 1276h601q-115 -187 -202 -400t-139.5 -435t-68.5 -441h291q7 166 35 333t76 333q47 167 111 322q64 156 144 305v204h-848v-221z" />
<glyph unicode="8" d="M70 432q0 -158 42 -259t137.5 -151.5t252.5 -50.5q202 0 307 110q105 108 105 351q0 174 -50 267q-49 92 -174 116q75 32 116.5 75.5t56.5 102.5q16 59 16 144q0 129 -38 215t-122 129t-221 43q-135 0 -222 -51t-126 -130t-39 -167q0 -105 18 -170.5t56 -106.5 q39 -42 102 -75q-118 -56 -168 -142q-49 -87 -49 -250zM353 420v47q0 87 8 136t38.5 79t94.5 31q63 0 94 -35t39 -89q8 -53 8 -140q0 -86 -6.5 -135t-37 -83.5t-93.5 -39.5q-95 2 -120 57t-25 172zM359 1106q0 78 37 138.5t102 60.5q61 0 95 -57t34 -136q0 -80 -35 -139 t-98 -59q-64 0 -100 56q-35 57 -35 136z" />
<glyph unicode="9" d="M74 951q0 196 38 321.5t130 188.5q93 63 252 63q122 0 204 -38.5t128 -111t65 -176.5t19 -247v-369q0 -238 -45 -371q-46 -132 -138 -186q-93 -53 -250 -53q-170 0 -268 81q-98 82 -98 259h258q0 -52 23 -86.5t98 -34.5q57 0 88.5 29t43.5 71.5t14 98.5l3 180 q-50 -51 -94 -75t-129 -24q-118 0 -194.5 54t-112 161t-35.5 265zM357 910q0 -100 26 -157.5t111 -57.5q90 0 113.5 72t23.5 204v88q-2 122 -29 184t-116 62q-82 0 -105.5 -56t-23.5 -178v-161z" />
<glyph unicode=":" horiz-adv-x="514" d="M127 0h260v271h-260v-271zM127 860h260v269h-260v-269z" />
<glyph unicode=";" horiz-adv-x="514" d="M127 0h139q0 -91 -36.5 -143.5t-102.5 -59.5v-92q129 15 194.5 92.5t65.5 206.5v267h-260v-271zM127 860h260v269h-260v-269z" />
<glyph unicode="&#x3c;" d="M74 404l836 -451v221l-592 330l592 340v221l-836 -454v-207z" />
<glyph unicode="&#x3e;" d="M74 -47l836 451v207l-836 454v-221l596 -340l-596 -330v-221z" />
<glyph unicode="?" d="M97 1174q0 -35 2 -53h247q5 85 11 124q6 40 34 70q28 31 91 31q119 0 119 -166q0 -84 -36 -153t-111 -164q-74 -97 -112 -164t-44 -152q-6 -71 -6 -144h235q0 90 14 155q15 64 59 116q90 96 144.5 165t92.5 156t38 185q0 85 -27.5 155t-79 119.5t-123 76t-159.5 26.5 q-122 0 -209.5 -42t-133.5 -128q-46 -85 -46 -213zM287 0h256v266h-256v-266z" />
<glyph unicode="@" horiz-adv-x="1647" d="M62 768q0 -169 63 -317t175 -258t259.5 -170t311.5 -60q127 0 241.5 41.5t210.5 117.5t170 180h-192q-205 -187 -416 -187q-139 0 -260 47q-121 45 -212.5 132t-142.5 208t-51 266q0 181 81 327t226.5 228t327.5 82q166 0 296 -64q131 -64 204 -188q74 -124 74 -297 q0 -62 -26 -144q-26 -81 -75 -146q-48 -64 -108 -78q-22 0 -31 8q-8 8 -8 31l106 624h-196l-25 -104q-81 120 -254 120q-124 0 -222 -66q-98 -68 -152 -179t-54 -236q0 -103 42 -189t120 -136q78 -49 180 -49q118 0 250 129q0 -68 25 -102q24 -33 57 -33q148 0 268 90 q120 91 187 233q67 143 67 285q0 185 -103 332q-104 148 -271 229q-168 82 -347 82q-217 0 -400.5 -103.5t-289.5 -284.5t-106 -401zM609 719q3 66 34 125t81 95.5t112 41.5q164 0 164 -233q-7 -56 -37 -112.5t-84.5 -94t-128.5 -37.5q-141 18 -141 215z" />
<glyph unicode="A" horiz-adv-x="1073" d="M-4 0l361 1522h376l340 -1522h-297l-73 383h-330l-76 -383h-301zM416 611h242l-119 739z" />
<glyph unicode="B" horiz-adv-x="1073" d="M110 0v1522h449q116 0 193 -21q77 -23 129 -96q82 -94 82 -258q0 -113 -48 -206q-25 -49 -56 -77.5t-57 -40.5q-24 -12 -26 -12q118 -12 171 -111t53 -237q0 -96 -24 -188q-32 -98 -79.5 -158.5t-118.5 -88.5t-169 -28h-499zM387 221l135 -2q57 0 99 19q86 43 86 215 q0 86 -16.5 134.5t-61 71.5t-131.5 23h-111v-461zM387 903q127 0 179 10q49 9 77 46q31 45 31 166q0 91 -30 132t-122 44h-135v-398z" />
<glyph unicode="C" horiz-adv-x="1073" d="M90 666v215q7 182 22 293q16 110 63.5 198t145 136.5t259.5 48.5q189 -3 292 -100q104 -98 119 -293q9 -74 9 -117h-279q-11 136 -24 181q-13 42 -41 69.5t-76 27.5q-126 0 -164 -95q-24 -63 -31.5 -122t-7.5 -162v-424q0 -86 13 -157q12 -70 57 -122t133 -52 q53 0 83 37.5t41.5 92t13.5 117.5t3 101h287l-8 -82q-10 -233 -105.5 -363.5t-314.5 -130.5q-164 0 -264.5 51t-148.5 143.5t-62 210.5q-15 119 -15 298z" />
<glyph unicode="D" horiz-adv-x="1172" d="M123 0v1522h584q160 0 242.5 -112t105 -261t22.5 -325q0 -206 -11 -342t-61 -257.5t-157 -183.5q-66 -41 -209 -41h-516zM400 221h123q95 0 149 28.5t80 92t33 165.5t7 290q0 146 -9 238q-8 91 -30 150.5t-62 87.5q-39 28 -103 28h-188v-1080z" />
<glyph unicode="E" d="M123 0v1522h787v-221h-510v-389h471v-222h-471v-469h510v-221h-787z" />
<glyph unicode="F" d="M137 0v1522h801v-221h-522v-389h485v-222h-485v-690h-279z" />
<glyph unicode="G" horiz-adv-x="1172" d="M86 666v215q7 182 22 293q16 110 63.5 198t145 136.5t259.5 48.5q131 -2 223 -30.5t155 -99.5q48 -54 72.5 -126.5t28.5 -125.5q1 -9 4 -59q2 -50 2 -73h-276q-3 95 -16 151t-58 92t-135 39q-126 0 -164 -95q-26 -62 -32.5 -121.5t-6.5 -162.5v-424q0 -140 38 -235.5 t165 -95.5q95 0 147 84q62 100 62 319h-193v221h463v-815h-206l-5 175q-31 -90 -90 -141q-70 -62 -178 -71q-164 0 -264.5 51t-148.5 143.5t-62 210.5q-15 119 -15 298z" />
<glyph unicode="H" horiz-adv-x="1172" d="M114 0v1522h277v-608h397v608h277v-1522h-277v695h-397v-695h-277z" />
<glyph unicode="I" horiz-adv-x="514" d="M119 0v1522h277v-1522h-277z" />
<glyph unicode="J" horiz-adv-x="844" d="M-10 398q0 57 2 86h283v-189q0 -104 86 -104q67 0 85.5 41t18.5 121v1169h281v-1114q0 -143 -15 -217.5t-69 -130.5q-50 -52 -124 -79q-74 -26 -155 -26q-107 0 -203.5 44t-146.5 120q-43 67 -43 279z" />
<glyph unicode="K" horiz-adv-x="1073" d="M119 0v1522h277l4 -678l342 678h315l-371 -653l387 -869h-313l-266 602l-98 -166v-436h-277z" />
<glyph unicode="L" d="M129 0v1522h279v-1301h526v-221h-805z" />
<glyph unicode="M" horiz-adv-x="1549" d="M129 0v1522h447l209 -1057l194 1057h449v-1522h-282l18 1383l-302 -1383h-172l-307 1383l25 -1383h-279z" />
<glyph unicode="N" horiz-adv-x="1172" d="M114 0v1522h286l424 -1161h4q-22 253 -32 453l-11 708h276v-1522h-289l-422 1143l29 -455l12 -688h-277z" />
<glyph unicode="O" horiz-adv-x="1172" d="M98 666v215q6 174 22 287.5t64.5 202.5t146.5 137.5t261 48.5q164 0 260 -48q97 -49 143.5 -137t61.5 -198t20 -293v-215q0 -183 -13.5 -300.5t-60.5 -209t-146.5 -142.5t-264.5 -51q-166 0 -267 51t-150 144q-48 92 -63 211q-14 119 -14 297zM383 522q0 -139 40 -235 t169 -96q92 0 136.5 53.5t53.5 126.5q10 72 10 176v391q0 105 -11 185.5t-55.5 141t-133.5 60.5q-91 0 -137 -52.5t-59 -123.5q-13 -73 -13 -203v-424z" />
<glyph unicode="P" horiz-adv-x="1073" d="M119 0v1522h571q111 0 192 -63t124 -165q41 -103 41 -214q0 -109 -38.5 -203.5t-110.5 -153.5q-113 -86 -309 -86h-193v-637h-277zM396 860h150q100 0 152 52t52 182q0 87 -23 131.5t-69.5 60t-130.5 15.5h-131v-441z" />
<glyph unicode="Q" horiz-adv-x="1172" d="M98 666v215q6 174 22 287.5t64.5 202.5t146.5 137.5t261 48.5q164 0 260 -48q97 -49 143.5 -137t61.5 -198t20 -293v-215q0 -180 -15.5 -310t-61.5 -210l153 -154l-141 -134l-158 150q-90 -45 -262 -45q-166 0 -267 51t-150 144q-48 92 -63 211q-14 119 -14 297zM383 522 q0 -139 40 -235t169 -96q43 0 70 12l-53 55l151 125l16 -14q16 91 16 153v424q0 151 -12 211q-13 69 -57.5 118.5t-130.5 49.5q-91 0 -137 -52.5t-59 -123.5q-13 -73 -13 -203v-424z" />
<glyph unicode="R" horiz-adv-x="1172" d="M110 0v1522h529q198 0 312 -85t114 -282q0 -152 -41.5 -235.5t-91.5 -109.5t-87 -26q-3 0 -5.5 0.5t-3.5 0.5q118 -14 167 -85q30 -44 39 -94.5t9 -142.5q0 -395 63 -434v-29h-311q-27 101 -27 383q-4 88 -7 124q-4 37 -25 76.5t-66 52.5q-71 18 -291 18v-654h-277z M387 877h226q78 6 121.5 67t43.5 144q0 85 -46.5 147.5t-131.5 65.5h-213v-424z" />
<glyph unicode="S" horiz-adv-x="1073" d="M74 428v107h283v-86q0 -121 40 -189.5t138 -68.5q84 0 128 48t44 120q0 59 -29 117t-77 94q-15 11 -98.5 68t-154 107t-99.5 75q-73 62 -121 145q-49 84 -49 190q0 129 48 219q49 90 148.5 136.5t246.5 46.5q198 0 294 -80q97 -80 121 -185q24 -104 24 -235h-270 q0 81 -11 138.5t-47 93.5t-106 36q-77 0 -117.5 -32t-40.5 -109q0 -53 21 -90t48 -59q13 -10 75.5 -52t99.5 -67t112 -76q61 -42 126.5 -106.5t107 -148.5t41.5 -185q0 -210 -126.5 -323.5t-338.5 -113.5q-164 0 -266.5 57.5t-148.5 161.5t-46 246z" />
<glyph unicode="T" d="M25 1301v221h938v-221h-328v-1301h-283v1301h-327z" />
<glyph unicode="U" horiz-adv-x="1172" d="M114 461v1061h277v-1038q0 -93 12 -153.5t56.5 -100t136.5 -39.5q121 0 156.5 76t35.5 217v1038h277v-1061q0 -176 -42.5 -283.5t-145.5 -161t-285 -53.5q-183 0 -287.5 53.5t-146.5 161.5q-44 107 -44 283z" />
<glyph unicode="V" horiz-adv-x="1073" d="M21 1522h301l227 -1364l207 1364h299l-326 -1522h-376z" />
<glyph unicode="W" horiz-adv-x="1647" d="M37 1522h289l176 -1331h4l201 1331h235l211 -1331h2l166 1331h295l-283 -1522h-337l-177 1082l-161 -1082h-336z" />
<glyph unicode="X" horiz-adv-x="1073" d="M0 0l369 772l-352 750h313l209 -537h4l199 537h315l-358 -750l370 -772h-319l-215 561h-4l-222 -561h-309z" />
<glyph unicode="Y" horiz-adv-x="1073" d="M4 1522h305l230 -633l229 633h301l-395 -877v-645h-283v645z" />
<glyph unicode="Z" d="M53 0v226l568 1079l-12 -1.5t-43 -0.5q-40 -1 -176 -1q-136 -1 -300 -1v221h820v-225l-560 -1084l584 8v-221h-881z" />
<glyph unicode="[" horiz-adv-x="658" d="M155 -191h400v154h-178v365v1038h178v156h-400v-678v-1035z" />
<glyph unicode="\" horiz-adv-x="465" d="M-192 1522l205 -488l442 -1034h211l-206 484l-443 1038h-209z" />
<glyph unicode="]" horiz-adv-x="658" d="M102 -37v-154h400v675v1038h-400v-156h180v-368v-1035h-180z" />
<glyph unicode="_" d="M-8 -123v-115h1004v115h-1004z" />
<glyph unicode="`" horiz-adv-x="658" d="M-4 1567l297 -291h205l-189 291h-313z" />
<glyph unicode="a" d="M73 312q0 92 30.5 157t82.5 108t108 70t167 72q72 32 104.5 65.5t32.5 82.5q0 74 -44 93q-28 11 -85 11q-56 0 -86 -19q-29 -19 -39 -55t-10 -94h-248q0 123 34.5 203.5t121 123t235.5 42.5q128 0 205.5 -29t113.5 -78q37 -49 46.5 -103t9.5 -126v-678q0 -88 23 -157 h-246q-8 17 -13 56t-7 62q-95 -147 -232 -147q-157 0 -230.5 82t-73.5 258zM338 316q0 -72 26 -109t95 -37q83 0 108 63.5t25 168.5v200q-70 -44 -126.5 -81t-92 -85t-35.5 -120z" />
<glyph unicode="b" d="M123 0v1522h256v-295q-1 -63 -2 -123q-2 -61 -2 -77v-2q1 0 1 1h1q40 80 94.5 113t141.5 33q89 -3 146 -39t88 -124t34 -241v-415q-5 -169 -63 -275q-57 -106 -205 -106q-88 3 -142 35q-39 24 -71 70q-31 45 -31 46v-122zM379 373q0 -203 127 -203q104 0 119 199v379 q-6 96 -11 130.5t-30 63.5t-82 29q-80 0 -101.5 -72.5t-21.5 -181.5v-344z" />
<glyph unicode="c" horiz-adv-x="844" d="M69 396v372q0 223 95 313t264 90q93 0 162 -27q130 -51 176 -181q19 -60 19 -127v-92h-262l-1 129q-6 98 -90 98q-66 0 -82 -60.5t-16 -197.5v-264q-1 -32 -1 -81q1 -80 9 -113q10 -44 31 -61.5t59 -22.5q53 2 68 40.5t22 129.5v108h263v-109q0 -183 -86 -276 q-85 -92 -271 -92q-86 0 -152 23q-66 24 -112.5 75t-70.5 131q-24 81 -24 195z" />
<glyph unicode="d" d="M99 353v415q4 151 35 240q32 89 88.5 125t146.5 39q87 0 141 -32q30 -19 48.5 -44t30.5 -48.5t13 -23.5l-2 498h258v-1521h-258v122h-4q-36 -84 -89 -116t-138 -35q-149 0 -206 106q-56 106 -64 275zM357 369q15 -199 116 -199q62 0 94.5 52t32.5 151v344 q0 109 -21 181.5t-102 72.5q-56 0 -80.5 -28.5t-29 -63.5t-10.5 -131v-379z" />
<glyph unicode="e" d="M99 453q0 -131 25 -222q23 -91 72.5 -148t128 -84.5t189.5 -27.5q188 0 274.5 104.5t86.5 307.5h-258q0 -112 -26.5 -162.5t-96.5 -50.5q-69 0 -103 37t-34 141v166h522v156q0 176 -27 281t-114 163t-261 58q-378 0 -378 -424v-295zM357 717v51q0 109 22 156t103 47 q79 0 107 -32q29 -32 32 -120v-102h-264z" />
<glyph unicode="f" horiz-adv-x="514" d="M21 951h102v-951h256l1 951h114v192h-114v137q0 39 50 39q33 0 64 -8v211h-98q-100 0 -158.5 -23t-86.5 -81q-27 -56 -27 -154v-8v-113h-103v-192z" />
<glyph unicode="g" d="M99 353v415q6 223 71 312q66 89 199 92q89 0 143 -35q54 -34 84 -111h4v117h258v-1036q0 -122 -3.5 -162.5t-12.5 -79.5q-17 -74 -62 -130q-44 -56 -127.5 -87t-211.5 -31q-308 0 -330 256h258q0 -37 36 -52.5t77 -15.5q131 0 131 178l-4 136q-40 -80 -95.5 -112 t-144.5 -35q-149 0 -206 106q-56 106 -64 275zM357 369q15 -199 116 -199q62 0 94.5 52t32.5 151v344q0 109 -21 181.5t-102 72.5q-56 0 -80.5 -28.5t-29 -63.5t-10.5 -131v-379z" />
<glyph unicode="h" d="M115 0v1522h258l4 -496q86 145 240 145q116 0 187 -70.5t71 -219.5v-881h-258v785q0 93 -22.5 138t-92.5 48q-129 0 -129 -215v-756h-258z" />
<glyph unicode="i" horiz-adv-x="514" d="M129 0v1143h258v-1143h-258zM129 1284v238h258v-238h-258z" />
<glyph unicode="j" horiz-adv-x="514" d="M41 -183q44 0 62 6q34 10 34 54v1266h259v-1147l2 -121q0 -88 -22 -149.5t-83 -90.5q-45 -22 -164 -22q-27 0 -88 4v200zM137 1284v238h259v-238h-259z" />
<glyph unicode="k" horiz-adv-x="844" d="M69 0v1522h265v-832l242 453h286l-286 -461l278 -682h-291l-163 467l-66 -119v-348h-265z" />
<glyph unicode="l" horiz-adv-x="514" d="M129 0v1522h258v-1522h-258z" />
<glyph unicode="m" horiz-adv-x="1549" d="M129 0v1143h258l4 -117q42 85 105 113q63 29 147 33q85 0 156.5 -36.5t81.5 -109.5q40 69 115 106q74 38 159 38q70 0 133 -28q63 -27 102 -83q38 -55 38 -133v-926h-264v772q0 96 -23.5 147.5t-99.5 51.5q-78 -3 -107 -57.5t-29 -165.5v-748h-258v789q0 92 -23 137 t-106 45q-60 0 -88.5 -27.5t-35.5 -72.5t-7 -123v-748h-258z" />
<glyph unicode="n" d="M115 0v1143h258l4 -117q40 79 107 115q56 31 133 31q116 0 187 -71t71 -220v-881h-258v764q0 94 -22 139t-93 48q-53 0 -85 -37q-44 -52 -44 -179v-735h-258z" />
<glyph unicode="o" d="M99 531q0 -157 15 -259q15 -101 56 -168q42 -68 120 -100q79 -33 208 -33q125 0 201.5 32.5t116.5 100t55 167.5q14 101 14 260q0 185 -9 288q-8 103 -43.5 184t-115.5 125t-219 44q-142 0 -223.5 -44t-118.5 -126t-46 -184.5t-11 -286.5zM357 373v379q0 109 23.5 164 t117.5 55q88 0 109 -55q22 -55 22 -164v-379q0 -81 -8 -122t-35.5 -61t-87.5 -20q-64 0 -93.5 20t-38.5 62t-9 121z" />
<glyph unicode="p" d="M111 -381v1524h258v-123q39 85 94 119q52 33 137 33q133 -3 199 -93t72 -315v-416q-7 -167 -65 -272q-57 -104 -206 -104q-83 3 -137 33q-43 25 -75 70q-31 41 -31 44v-500h-246zM369 373q0 -203 125 -203q103 0 119 199v379q-8 125 -19 159q-11 29 -35.5 46.5 t-68.5 17.5q-79 0 -100 -72.5t-21 -181.5v-344z" />
<glyph unicode="q" d="M94 353v415q2 152 33 240q31 89 87.5 125t146.5 39q87 0 142 -32q21 -11 39.5 -31.5t27 -35t16 -28.5t10.5 -19v117h258v-1524h-258l-4 504q-38 -82 -92.5 -115t-138.5 -36q-102 0 -161 54q-58 53 -81 137q-22 83 -25 190zM353 369q7 -199 112 -199q64 0 97.5 52 t33.5 151v344q0 109 -21.5 181.5t-105.5 72.5q-54 0 -77 -28q-22 -28 -27 -58.5t-12 -136.5v-379z" />
<glyph unicode="r" horiz-adv-x="658" d="M119 0v1143h246l4 -201q41 101 104 155.5t162 66.5v-312q-21 3 -45 3q-81 0 -130 -28q-81 -45 -83 -165v-662h-258z" />
<glyph unicode="s" horiz-adv-x="844" d="M29 316q0 16 2 37t2 24h260q-2 -20 -2 -57q0 -99 32 -124.5t89 -25.5q49 0 79.5 33.5t30.5 97.5q-2 41 -29 63q-26 22 -102 72l-143 99q-103 76 -157 159q-54 84 -54 201q0 132 101 204q100 73 290 73q171 0 261 -83q100 -94 100 -292h-262q0 96 -29 135q-29 40 -94 40 q-47 0 -77 -25q-30 -24 -30 -70q0 -41 28 -74q14 -17 66 -59l218 -142q59 -40 116.5 -107.5t63.5 -121.5q4 -45 4 -68q0 -152 -87 -242q-87 -92 -310 -92q-80 0 -162 28.5t-143 106.5q-62 81 -62 210z" />
<glyph unicode="t" horiz-adv-x="514" d="M8 951v192h107v315h258v-315h113v-192h-113v-713q5 -37 76 -37q13 1 22 1.5t15 0.5v-207q-87 -9 -133 -9q-238 0 -238 187v777h-107z" />
<glyph unicode="u" d="M111 271v872h258v-782q0 -89 17.5 -140t86.5 -51q56 0 83.5 36t33.5 82.5t6 111.5v743h258v-1143h-245l-5 170q-34 -103 -92 -151t-151 -48q-102 0 -156.5 33.5t-74.5 98.5q-19 64 -19 168z" />
<glyph unicode="v" horiz-adv-x="844" d="M-4 1143h283l145 -981h4l144 981h276l-260 -1143h-326z" />
<glyph unicode="w" horiz-adv-x="1317" d="M12 1143h279l113 -952q2 62 8 108t45.5 291t85.5 553h213q56 -309 88.5 -506t43.5 -269.5t17.5 -123t6.5 -56.5v2q0 5 2 5l110 948h262l-231 -1143h-283l-120 748h-9l-104 -748h-295z" />
<glyph unicode="x" horiz-adv-x="844" d="M-8 0l299 582l-287 561h310l118 -311l121 311h291l-285 -557l293 -586h-297l-127 353h-4l-133 -353h-299z" />
<glyph unicode="y" horiz-adv-x="844" d="M-16 1143h278l154 -913l152 913h268l-277 -1160q-37 -152 -48 -191.5t-39 -87.5t-79.5 -74t-131.5 -26q-53 0 -131 13l-1 205q27 -1 48.5 -3t23.5 -2q82 0 82 54q0 65 -24 146z" />
<glyph unicode="z" horiz-adv-x="746" d="M28 0h689v203h-412l412 752v188h-680v-201h391l-400 -735v-207z" />
<glyph unicode="{" horiz-adv-x="514" d="M-78 658q82 -19 113 -70.5t31 -142.5v-330q0 -159 58 -230.5t210 -71.5h131v4q-151 41 -151 220v346q0 119 -33 192t-131 87v4q96 20 130 79.5t34 172.5v379q0 90 32.5 145.5t118.5 75.5v4h-147q-91 0 -147 -30t-80.5 -89t-24.5 -147v-371q0 -203 -144 -223v-4z" />
<glyph unicode="|" horiz-adv-x="465" d="M133 0h201v484v1038h-201v-488v-1034z" />
<glyph unicode="}" horiz-adv-x="514" d="M51 -187v-4h138q104 0 160 31.5t78 96.5t22 174v330q0 99 29 153q30 53 122 64v4q-151 21 -151 219v371q0 97 -26 155.5t-82 85t-152 29.5h-138v-8q150 -27 150 -221v-379q0 -112 33.5 -172t130.5 -80v-4q-101 -30 -132.5 -94.5t-31.5 -182.5v-344q0 -93 -32 -148 t-118 -76z" />
<glyph unicode="~" d="M43 461l113 -154q18 37 32 64.5t32 50.5q17 24 40 38.5t54 14.5q24 0 115 -44t148 -67.5t109 -23.5q47 0 85 22q39 21 67 53q29 33 60.5 84.5t47.5 78.5l-114 145q-24 -40 -43 -72t-43.5 -54.5t-59.5 -22.5q-33 0 -132 49t-142.5 68.5t-102.5 19.5q-86 0 -145 -67 t-121 -183z" />
<glyph unicode="&#xa1;" horiz-adv-x="658" d="M198 146q0 -12 1 -33q2 -22 2 -33v-424h260v424q0 109 -6.5 213t-21.5 278.5t-17 213.5h-176q-3 -81 -16 -230t-19 -231q-7 -81 -7 -178zM200 903h261v269h-261v-269z" />
<glyph unicode="&#xa2;" d="M137 391q0 -160 41 -251.5t123 -131.5l-47 -254h133l45 217q38 -8 86 -8q89 0 160 38q71 39 114 110.5t52 167.5q8 98 8 166h-260v-108q-7 -100 -33 -133q-17 -13 -51 -13q-31 0 -47 16l119 692h12v-159h260v92q0 224 -182 305l41 221h-143l-29 -194q-47 14 -86 14 q-79 0 -151 -44t-118.5 -137t-46.5 -233v-373zM379 279v424q0 131 16 191.5t82 60.5l21 -4l-115 -672h-4z" />
<glyph unicode="&#xa3;" d="M58 158l75 -187q129 62 220 62q45 0 102 -12q177 -44 276 -44q136 0 236 64l-57 225q-84 -67 -197 -67q-182 26 -227 26q-108 0 -203 -51h-4l-4 4q62 42 119 105t92 137q35 75 35 150q0 62 -23 112h248v121h-291q-94 208 -94 318q0 212 170 212q103 0 129 -64t26 -192 h261q0 100 -7.5 165t-38.5 120q-103 195 -352 195q-126 0 -228 -49t-160 -143t-58 -224q0 -202 90 -338h-131v-121h174q41 -62 41 -145q0 -73 -30 -149q-31 -75 -82 -137t-107 -93z" />
<glyph unicode="&#xa4;" d="M8 279l152 -160l84 84q119 -74 246 -74q130 0 256 74l90 -84l143 160l-86 86q76 109 76 256q0 153 -76 268l86 84l-143 164l-90 -90q-112 71 -248 71q-135 0 -254 -71l-84 90l-152 -164l86 -84q-69 -121 -69 -252q0 -130 69 -272zM266 627q0 66 26.5 125t79.5 96t126 37 q72 0 123 -37t76.5 -96t25.5 -125q0 -106 -60 -184t-165 -78q-107 0 -169.5 78t-62.5 184z" />
<glyph unicode="&#xa5;" d="M-43 1522l396 -877v-123h-224v-102h224v-119h-224v-102h224v-199h282v199h217v102h-217v119h217v102h-217v123l397 877h-307l-162 -401q-48 -146 -65 -232h-4q-17 116 -66 232l-157 401h-314z" />
<glyph unicode="&#xa7;" d="M62 682q0 -85 22 -144q21 -58 62 -102t117 -104l235 -190q119 -88 119 -206q-9 -44 -43 -71t-76 -27q-88 0 -118 46t-30 141h-247q0 -97 12 -148q36 -121 134 -182.5t220 -61.5q74 0 146 23.5t129 69.5q58 46 90.5 111t32.5 146q0 73 -33.5 157t-77.5 118 q81 49 120.5 121.5t39.5 157.5q0 62 -20 123q-21 62 -59.5 116t-90.5 93l-272 217q-48 36 -71 69q-23 34 -23 84q0 57 33 86q34 29 85 29q127 0 127 -154h246q0 114 -44 194.5t-124 121.5t-185 41q-125 0 -211 -47t-127.5 -123t-41.5 -160q0 -93 21 -152t77 -102 q-83 -48 -128.5 -124.5t-45.5 -166.5zM298 723q0 81 75 113l232 -187q33 -28 53.5 -69t20.5 -80q0 -76 -70 -117l-248 203q-28 25 -46 63q-17 38 -17 74z" />
<glyph unicode="&#xa8;" horiz-adv-x="658" d="M4 1309h258v227h-258v-227zM395 1309h259v227h-259v-227z" />
<glyph unicode="&#xa9;" horiz-adv-x="1647" d="M37 764q0 -218 105.5 -402.5t288 -291.5t397.5 -107q212 0 394 107.5t288 291.5q106 185 106 402q0 216 -106 398q-106 183 -288 289t-394 106q-216 0 -397.5 -106t-287.5 -288t-106 -399zM185 764q0 175 85 323q86 147 234 232.5t324 85.5q170 0 317 -85.5t233.5 -233.5 t86.5 -322q0 -175 -86.5 -325t-233.5 -236q-147 -88 -317 -88q-175 0 -323.5 87t-233.5 236q-86 150 -86 326zM424 772q0 -130 54 -236.5t153.5 -167.5t226.5 -61q93 0 173.5 39t132.5 111t63 166h-180q-2 -73 -57 -119.5t-132 -46.5q-81 0 -140.5 45.5t-89.5 119t-30 156.5 q0 80 29 149q29 70 86 112q57 43 139 43q79 0 131.5 -41.5t63.5 -118.5h180q-26 144 -126.5 224.5t-246.5 80.5q-129 0 -227 -58.5t-150.5 -162t-52.5 -234.5z" />
<glyph unicode="&#xaa;" horiz-adv-x="559" d="M21 586h522v131h-522v-131zM25 1039q0 -107 47 -155t147 -48q46 0 88 23q42 24 62 59h4q0 -45 6 -66h164q-12 49 -12 99v403q0 93 -45 148t-199 55q-152 0 -205 -56t-53 -168h160q0 55 18 84t72 29q68 0 78 -49q4 -20 4 -29q0 -27 -19.5 -44.5t-66.5 -35.5 q-106 -46 -145.5 -66.5t-72 -65t-32.5 -117.5zM193 1043q0 44 14 66.5t53 46t97 57.5v-72v-41q0 -69 -15 -107q-14 -38 -67 -38q-46 0 -64 22t-18 66z" />
<glyph unicode="&#xab;" d="M142 412l313 -285v226l-188 165l188 160v225l-313 -280v-211zM515 412l317 -285v226l-192 165l192 160v225l-317 -280v-211z" />
<glyph unicode="&#xac;" d="M43 586h678v-375h225v600h-903v-225z" />
<glyph unicode="&#xad;" horiz-adv-x="658" d="M94 514h474v234h-474v-234z" />
<glyph unicode="&#xae;" horiz-adv-x="1647" d="M37 764q0 -218 105.5 -402.5t288 -291.5t397.5 -107q212 0 394 107.5t288 291.5q106 185 106 402q0 214 -106 396.5t-288 289.5t-394 107q-215 0 -397 -107q-183 -106 -288.5 -288.5t-105.5 -397.5zM184 764q0 175 86 322.5t234 233t324 85.5q172 0 319 -85.5t232 -233 t85 -322.5q0 -178 -84 -327q-86 -150 -233 -236t-319 -86q-176 0 -324 86t-234 235.5t-86 327.5zM502 324h163v366h170l189 -366h191l-203 366q231 20 231 228q0 159 -98 225q-75 45 -235 45h-408v-864zM665 819v238h210q90 0 144 -18t54 -88q0 -78 -38.5 -105t-120.5 -27 h-249z" />
<glyph unicode="&#xb1;" d="M43 -29h903v220h-903v-220zM43 543h336v-268h225v268h342v225h-342v271h-225v-271h-336v-225z" />
<glyph unicode="&#xb2;" horiz-adv-x="559" d="M4 611h539v129h-342q0 68 92 159l148 140q112 115 112 249q0 106 -71 170t-189 66q-179 0 -227.5 -86.5t-48.5 -198.5v-22h168q0 83 17 128.5t85 45.5q86 0 86 -107q0 -61 -20 -94q-19 -34 -70 -80l-90 -92q-149 -143 -172 -254q-3 -20 -10 -85q-6 -65 -7 -68z" />
<glyph unicode="&#xb3;" horiz-adv-x="559" d="M4 856q0 -112 52 -191t219 -79q280 0 280 291q0 100 -39 155.5t-108 61.5v8q68 8 99 63q32 54 32 123q0 110 -83 173t-194 63q-120 0 -196 -69q-49 -70 -49 -203h168v64q3 34 24 51.5t51 17.5q40 0 70 -27q31 -27 31 -70q0 -58 -22 -84t-49 -32t-101 -13v-133 q91 0 137.5 -26.5t46.5 -108.5q0 -85 -16 -128.5t-78 -43.5q-42 0 -64.5 17.5t-30.5 44.5t-10 76t-2 51h-168v-52z" />
<glyph unicode="&#xb4;" horiz-adv-x="658" d="M160 1276h205l297 291h-312z" />
<glyph unicode="&#xb5;" d="M111 -381h258v389q30 -8 61 -8q117 0 174 170h5v-170h245v107v1036h-258v-743q0 -65 -6 -111.5t-33.5 -82.5t-83.5 -36q-69 0 -86.5 51t-17.5 140v782h-258v-489v-1035z" />
<glyph unicode="&#xb6;" horiz-adv-x="1073" d="M33 1159q0 -101 36.5 -180t108 -123.5t172.5 -44.5v-10v-1035h238v476v1042h133v-483v-1035h240v476v1042h84v238h-609q-198 0 -300.5 -84t-102.5 -279z" />
<glyph unicode="&#xb7;" horiz-adv-x="658" d="M196 369h265v268h-265v-268z" />
<glyph unicode="&#xb8;" horiz-adv-x="658" d="M70 -408q131 -53 233 -53q142 0 220 96q18 42 18 82q0 73 -47 122.5t-117 49.5q-34 0 -75 -16l82 127h-105l-119 -183l41 -38q56 18 84 18q25 0 49 -10q37 -17 37 -56q0 -32 -25 -60t-59 -28q-73 0 -172 33z" />
<glyph unicode="&#xb9;" horiz-adv-x="559" d="M78 1239h223v-628h181v911h-132q-29 -90 -97.5 -125t-174.5 -35v-123z" />
<glyph unicode="&#xba;" horiz-adv-x="559" d="M25 586h510v131h-510v-131zM25 1172q0 -129 18 -199q19 -70 74.5 -104t165.5 -34q107 0 162.5 34t74.5 104q19 71 19 199q-3 151 -16 224q-12 72 -66 116q-55 45 -174 45q-121 0 -176.5 -45t-68.5 -121t-13 -219zM193 1082v233q0 69 14 94t72 25q55 0 70 -26 q16 -26 16 -93v-233q0 -61 -15 -92q-14 -31 -71 -31t-72 31q-14 31 -14 92z" />
<glyph unicode="&#xbb;" d="M151 127l322 285v211l-322 280v-225l195 -151l-195 -174v-226zM531 127l317 285v211l-317 280v-225l190 -151l-190 -174v-226z" />
<glyph unicode="&#xbc;" horiz-adv-x="1456" d="M17 1239h219v-628h180v911h-129q-30 -90 -98 -125t-172 -35v-123zM236 0h152l264 461l588 1036h-146l-266 -463zM855 183h317v-183h182v183h86v133h-86v579h-201l-298 -579v-133zM988 316l180 374h4v-374h-184z" />
<glyph unicode="&#xbd;" horiz-adv-x="1456" d="M0 1239h219v-628h181v911h-129q-31 -90 -98.5 -125t-172.5 -35v-123zM193 0h149l267 461l587 1036h-151l-260 -463zM905 0h543v133h-342q0 72 90 162l146 137q116 114 116 246q0 108 -72 171t-190 65q-126 0 -188 -49t-76 -107t-14 -123v-24h172q0 81 16 128q17 46 82 46 q41 0 65.5 -27.5t24.5 -83.5q0 -61 -20.5 -94t-73.5 -80l-86 -92q-148 -137 -172 -254q-5 -22 -9 -53q-5 -30 -7.5 -56.5t-4.5 -44.5z" />
<glyph unicode="&#xbe;" horiz-adv-x="1456" d="M0 856q0 -112 52 -191t219 -79q282 0 282 291q0 100 -40 155q-40 56 -109 62v8q68 8 99 63q32 54 32 123q0 110 -83 173t-194 63q-121 0 -196 -69q-49 -70 -49 -203h167v64q4 34 25 51.5t51 17.5q40 0 70 -27q31 -27 31 -70q0 -58 -22 -84t-49 -32t-101 -13v-133 q92 0 138 -26.5t46 -108.5q0 -85 -16 -128.5t-78 -43.5q-42 0 -64.5 17.5t-30.5 44.5t-10 76t-2 51h-168v-52zM293 0h156l258 461l590 1036h-148l-268 -463zM875 183h317v-183h180v183h86v133h-86v579h-200l-297 -579v-133zM1008 316l180 374h4v-374h-184z" />
<glyph unicode="&#xbf;" d="M114 -8q0 -113 47 -198t134 -131t203 -46q393 0 393 387q0 8 -1 22q-1 15 -1 21h-246q-4 -45 -9 -85q-4 -41 -15.5 -70t-38.5 -48q-27 -18 -78 -18q-59 0 -87 39t-28 127q0 86 36.5 155.5t110.5 164.5t112 162t44 153q5 43 5 137h-234q0 -87 -14.5 -152.5t-59.5 -115.5 q-89 -92 -144 -161t-92 -155.5t-37 -187.5zM444 911h255v261h-255v-261z" />
<glyph unicode="&#xc0;" horiz-adv-x="1073" d="M-4 0h301l76 383h330l73 -383h297l-106 484l-234 1038h-376l-117 -487zM205 1948l297 -297h205l-189 297h-313zM416 611l86 428q8 47 12 87q5 39 13 114.5t12 109.5h4q26 -259 37 -311l78 -428h-242z" />
<glyph unicode="&#xc1;" horiz-adv-x="1073" d="M-4 0h301l76 383h330l73 -383h297l-106 484l-234 1038h-376l-117 -487zM369 1651h203l299 297h-316zM416 611l86 428q8 47 12 87q5 39 13 114.5t12 109.5h4q26 -259 37 -311l78 -428h-242z" />
<glyph unicode="&#xc2;" horiz-adv-x="1073" d="M-4 0h301l76 383h330l73 -383h297l-106 484l-234 1038h-376l-117 -487zM164 1645h223l131 166l125 -166h228l-228 291h-256zM416 611l86 428q8 47 12 87q5 39 13 114.5t12 109.5h4q26 -259 37 -311l78 -428h-242z" />
<glyph unicode="&#xc3;" horiz-adv-x="1073" d="M-4 0h301l76 383h330l73 -383h297l-106 484l-234 1038h-376l-117 -487zM172 1629h125q0 75 92 75q42 0 105 -20q141 -43 176 -43q194 0 235 245h-129q-18 -81 -94 -81q-15 0 -37.5 4.5t-47 13t-44.5 14.5q-72 27 -135 27q-99 0 -168 -60q-68 -60 -78 -175zM416 611 l86 428q8 47 12 87q5 39 13 114.5t12 109.5h4q26 -259 37 -311l78 -428h-242z" />
<glyph unicode="&#xc4;" horiz-adv-x="1073" d="M-4 0h301l76 383h330l73 -383h297l-106 484l-234 1038h-376l-117 -487zM211 1684h258v229h-258v-229zM416 611l86 428q8 47 12 87q5 39 13 114.5t12 109.5h4q26 -259 37 -311l78 -428h-242zM608 1684h254v229h-254v-229z" />
<glyph unicode="&#xc5;" horiz-adv-x="1073" d="M-4 0h301l76 383h330l73 -383h297l-106 484l-234 1038h-376l-117 -487zM334 1751q0 -86 54 -150.5t151 -64.5q96 0 149 65q54 64 54 150q0 88 -54 152.5t-149 64.5q-97 0 -151 -64t-54 -153zM416 611l86 428q8 47 12 87q5 39 13 114.5t12 109.5h4q26 -259 37 -311 l78 -428h-242zM426 1751q0 48 29.5 83.5t83.5 35.5q52 0 82.5 -35t30.5 -82t-31 -81q-30 -35 -82 -35q-53 0 -83 34t-30 80z" />
<glyph unicode="&#xc6;" horiz-adv-x="1549" d="M-47 0h301l125 387h346v-387h776v221h-493v469h461v222h-461v389h493v221h-970l-185 -488zM459 615l215 621h51v-621h-266z" />
<glyph unicode="&#xc7;" horiz-adv-x="1073" d="M90 666q0 -179 15 -298q14 -118 62 -210.5t148.5 -143.5t264.5 -51q219 0 314.5 131t105.5 363q2 14 4 41q2 28 4 41h-287q-1 -37 -3 -100t-13 -118q-12 -54 -42 -92t-83 -38q-88 0 -133 52t-57 122q-13 71 -13 157v424v52q0 137 38.5 232t164.5 95q48 0 76 -27.5 t40.5 -69t17 -92t7.5 -89.5h279q0 44 -8 117q-31 387 -412 393q-162 0 -259.5 -48.5t-145 -136.5t-63.5 -198q-15 -111 -22 -293v-215zM283 -408q121 -55 229 -55q141 0 218 98q26 60 26 90q0 73 -52.5 117.5t-121.5 44.5q-41 0 -72 -14l87 127h-111l-117 -183l39 -38 q64 18 88 18q23 0 47 -10q37 -19 37 -56q0 -30 -26.5 -59t-59.5 -29q-73 0 -172 33z" />
<glyph unicode="&#xc8;" d="M123 0h787v221h-510v469h471v222h-471v389h510v221h-787v-488v-1034zM160 1948l299 -297h203l-189 297h-313z" />
<glyph unicode="&#xc9;" d="M123 0h787v221h-510v469h471v222h-471v389h510v221h-787v-488v-1034zM326 1651h205l297 297h-314z" />
<glyph unicode="&#xca;" d="M123 0h787v221h-510v469h471v222h-471v389h510v221h-787v-488v-1034zM142 1645h223l129 166l127 -166h228l-228 291h-256z" />
<glyph unicode="&#xcb;" d="M123 0h787v221h-510v469h471v222h-471v389h510v221h-787v-488v-1034zM168 1684h260v229h-260v-229zM559 1684h260v229h-260v-229z" />
<glyph unicode="&#xcc;" horiz-adv-x="514" d="M-70 1948l293 -297h205l-192 297h-306zM119 0h277v484v1038h-277v-488v-1034z" />
<glyph unicode="&#xcd;" horiz-adv-x="514" d="M94 1651h199l299 297h-309zM119 0h277v484v1038h-277v-488v-1034z" />
<glyph unicode="&#xce;" horiz-adv-x="514" d="M-94 1645h223l129 166l125 -166h234l-238 291h-246zM119 0h277v484v1038h-277v-488v-1034z" />
<glyph unicode="&#xcf;" horiz-adv-x="514" d="M-62 1684h251v229h-251v-229zM119 0h277v484v1038h-277v-488v-1034zM326 1684h254v229h-254v-229z" />
<glyph unicode="&#xd0;" horiz-adv-x="1172" d="M-37 670h160v-670h516q143 0 209 41q107 62 157 183.5t61 257.5t11 342q0 176 -22.5 325t-105 261t-242.5 112h-584v-657h-160v-195zM400 221v449h139v195h-139v436h188q64 0 103 -28q40 -28 62 -87.5t31 -151t9 -237.5q0 -188 -8 -290q-7 -102 -33 -165.5t-80 -92 t-150 -28.5h-122z" />
<glyph unicode="&#xd1;" horiz-adv-x="1172" d="M114 0v1522h286l428 -1165l-17 258l-26 907h276v-1522h-289l-422 1143l18 -291l23 -852h-277zM219 1628q9 118 78.5 177t169.5 59q65 0 137 -27q115 -30 134 -30q68 0 90 79h129q-47 -246 -236 -246q-30 0 -120 33q-52 19 -85 29t-65 10q-31 0 -55 -12q-9 -4 -16 -12 t-14 -20t-12 -23t-8 -17h-127z" />
<glyph unicode="&#xd2;" horiz-adv-x="1172" d="M99 666q0 -178 14 -297t62 -211q49 -93 150 -144t267 -51q165 0 264.5 51t146.5 142.5t60.5 209t13.5 300.5v215q-5 183 -20 293t-61.5 198t-143.5 137q-96 48 -260 48q-163 0 -261 -48.5t-146.5 -137.5t-64.5 -202.5t-21 -287.5v-215zM258 1948l295 -297h203l-193 297 h-305zM383 522v424v43q0 88 13 159.5t59 124t137 52.5q89 0 133.5 -60.5t56 -141t11.5 -185.5v-391q0 -104 -10 -176.5t-54.5 -126t-136.5 -53.5q-129 0 -169 96t-40 235z" />
<glyph unicode="&#xd3;" horiz-adv-x="1172" d="M99 666q0 -178 14 -297t62 -211q49 -93 150 -144t267 -51q165 0 264.5 51t146.5 142.5t60.5 209t13.5 300.5v215q-5 183 -20 293t-61.5 198t-143.5 137q-96 48 -260 48q-163 0 -261 -48.5t-146.5 -137.5t-64.5 -202.5t-21 -287.5v-215zM383 522v424v43q0 88 13 159.5 t59 124t137 52.5q89 0 133.5 -60.5t56 -141t11.5 -185.5v-391q0 -104 -10 -176.5t-54.5 -126t-136.5 -53.5q-129 0 -169 96t-40 235zM424 1651h201l293 297h-305z" />
<glyph unicode="&#xd4;" horiz-adv-x="1172" d="M99 666q0 -178 14 -297t62 -211q49 -93 150 -144t267 -51q165 0 264.5 51t146.5 142.5t60.5 209t13.5 300.5v215q-5 183 -20 293t-61.5 198t-143.5 137q-96 48 -260 48q-163 0 -261 -48.5t-146.5 -137.5t-64.5 -202.5t-21 -287.5v-215zM232 1645h227l129 166l125 -166 h233l-235 291h-250zM383 522v424v43q0 88 13 159.5t59 124t137 52.5q89 0 133.5 -60.5t56 -141t11.5 -185.5v-391q0 -104 -10 -176.5t-54.5 -126t-136.5 -53.5q-129 0 -169 96t-40 235z" />
<glyph unicode="&#xd5;" horiz-adv-x="1172" d="M99 666q0 -178 14 -297t62 -211q49 -93 150 -144t267 -51q165 0 264.5 51t146.5 142.5t60.5 209t13.5 300.5v215q-5 183 -20 293t-61.5 198t-143.5 137q-96 48 -260 48q-163 0 -261 -48.5t-146.5 -137.5t-64.5 -202.5t-21 -287.5v-215zM219 1628h127q4 9 17.5 35.5 t32.5 36.5q24 12 55 12q28 0 60.5 -9t89.5 -30q56 -20 75.5 -26t44.5 -6q189 0 236 245h-129q-22 -79 -90 -79q-19 0 -134 30q-72 27 -137 27q-100 0 -169 -59t-79 -177zM383 522v424v43q0 88 13 159.5t59 124t137 52.5q89 0 133.5 -60.5t56 -141t11.5 -185.5v-391 q0 -104 -10 -176.5t-54.5 -126t-136.5 -53.5q-129 0 -169 96t-40 235z" />
<glyph unicode="&#xd6;" horiz-adv-x="1172" d="M99 666q0 -178 14 -297t62 -211q49 -93 150 -144t267 -51q165 0 264.5 51t146.5 142.5t60.5 209t13.5 300.5v215q-5 183 -20 293t-61.5 198t-143.5 137q-96 48 -260 48q-163 0 -261 -48.5t-146.5 -137.5t-64.5 -202.5t-21 -287.5v-215zM266 1684h252v229h-252v-229z M383 522v424v43q0 88 13 159.5t59 124t137 52.5q89 0 133.5 -60.5t56 -141t11.5 -185.5v-391q0 -104 -10 -176.5t-54.5 -126t-136.5 -53.5q-129 0 -169 96t-40 235zM654 1684h256v229h-256v-229z" />
<glyph unicode="&#xd8;" horiz-adv-x="1172" d="M47 -17l99 -59l90 148q41 -41 90 -65t111.5 -34t154.5 -10q165 0 264.5 51t146.5 142.5t60.5 209t13.5 300.5v215q-1 57 -3 120q-1 62 -6 116q-4 54 -16 107q-11 53 -32 97l117 189l-100 65l-86 -141q-71 74 -151 98.5t-208 24.5q-163 0 -261 -48.5t-146.5 -137.5 t-64.5 -202.5t-21 -287.5v-215q0 -352 65 -492zM383 553v287v61q0 135 12 222q12 88 58 145t139 57q165 0 173 -161zM404 348l389 623v-360v-60q0 -161 -37 -261q-37 -99 -164 -99q-87 0 -127 39q-39 39 -61 118z" />
<glyph unicode="&#xd9;" horiz-adv-x="1172" d="M115 461q0 -176 42.5 -283.5t147 -161t287.5 -53.5q182 0 285 53.5t145.5 161t42.5 283.5v23v1038h-276v-1038q0 -141 -36 -217t-157 -76q-92 0 -136.5 39.5t-56.5 100t-12 153.5v1038h-276v-25v-1036zM258 1948l295 -297h203l-193 297h-305z" />
<glyph unicode="&#xda;" horiz-adv-x="1172" d="M115 461q0 -176 42.5 -283.5t147 -161t287.5 -53.5q182 0 285 53.5t145.5 161t42.5 283.5v23v1038h-276v-1038q0 -141 -36 -217t-157 -76q-92 0 -136.5 39.5t-56.5 100t-12 153.5v1038h-276v-25v-1036zM424 1651h201l293 297h-305z" />
<glyph unicode="&#xdb;" horiz-adv-x="1172" d="M115 461q0 -176 42.5 -283.5t147 -161t287.5 -53.5q182 0 285 53.5t145.5 161t42.5 283.5v23v1038h-276v-1038q0 -141 -36 -217t-157 -76q-92 0 -136.5 40t-56.5 100q-12 61 -12 153v1038h-276v-25v-1036zM232 1645h227l129 166l125 -166h233l-235 291h-250z" />
<glyph unicode="&#xdc;" horiz-adv-x="1172" d="M115 461q0 -176 42.5 -283.5t147 -161t287.5 -53.5q182 0 285 53.5t145.5 161t42.5 283.5v23v1038h-276v-1038q0 -141 -36 -217t-157 -76q-92 0 -136.5 40t-56.5 100q-12 61 -12 153v1038h-276v-25v-1036zM266 1684h252v229h-252v-229zM654 1684h256v229h-256v-229z" />
<glyph unicode="&#xdd;" horiz-adv-x="1073" d="M4 1522l387 -877v-645h283v645l395 877h-301l-137 -346q-11 -31 -34 -87q-22 -56 -36 -100.5t-22 -99.5h-4q-16 102 -66 232l-160 401h-305zM369 1651h203l299 297h-316z" />
<glyph unicode="&#xde;" horiz-adv-x="1073" d="M119 0h277v316h193q198 0 309 92q72 59 110 152q39 92 39 198q0 84 -24 163q-23 79 -68.5 142t-113.5 100q-67 37 -150 37h-295v322h-277v-488v-1034zM396 538v439h131q85 0 131 -13.5t69 -55.5t23 -127q0 -133 -52 -187q-53 -56 -153 -56h-149z" />
<glyph unicode="&#xdf;" d="M115 0h258v88v1037q0 97 20.5 163t96.5 66q57 0 88 -35q31 -34 31 -92v-121q0 -63 -13.5 -92t-37.5 -37q-23 -8 -76 -14v-191q143 -5 143 -157v-238q0 -69 -28 -138q-27 -69 -81 -69q-26 0 -50 17v-187q74 -29 186 -29q229 35 229 486q0 190 -41 294t-137 130v4 q155 45 155 287q0 97 -36.5 185t-119 144t-208.5 56q-170 0 -253.5 -76t-104.5 -176.5t-21 -227.5v-43v-1034z" />
<glyph unicode="&#xe0;" d="M74 312q0 -176 73 -258.5t230 -82.5q137 0 232 148h4q0 -82 16 -119h246q-22 70 -22 158l-1 678q0 72 -9.5 125.5t-46.5 102.5q-36 49 -113.5 78.5t-205.5 29.5q-149 0 -235.5 -42.5t-120.5 -123t-34 -203.5h248q0 58 9 94q10 36 39 55q30 19 86 19q57 0 84.5 -11.5 t39.5 -47.5q6 -25 6 -45q0 -49 -33 -82q-32 -34 -104 -66q-112 -45 -168 -72t-107.5 -70t-82 -108t-30.5 -157zM160 1567l299 -291h203l-189 291h-313zM339 316q0 72 35 120t92 85t127 81v-123v-77q-1 -105 -26 -168.5t-108 -63.5q-69 0 -95 37q-25 37 -25 109z" />
<glyph unicode="&#xe1;" d="M74 312q0 -176 73 -258.5t230 -82.5q137 0 232 148h4q0 -82 16 -119h246q-22 70 -22 158l-1 678q0 72 -9.5 125.5t-46.5 102.5q-36 49 -113.5 78.5t-205.5 29.5q-149 0 -235.5 -42.5t-120.5 -123t-34 -203.5h248q0 58 9 94q10 36 39 55q30 19 86 19q57 0 84.5 -11.5 t39.5 -47.5q6 -25 6 -45q0 -49 -33 -82q-32 -34 -104 -66q-112 -45 -168 -72t-107.5 -70t-82 -108t-30.5 -157zM326 1276h205l297 291h-314zM339 316q0 72 35 120t92 85t127 81v-123v-77q-1 -105 -26 -168.5t-108 -63.5q-69 0 -95 37q-25 37 -25 109z" />
<glyph unicode="&#xe2;" d="M74 312q0 -176 73 -258.5t230 -82.5q137 0 232 148h4q0 -82 16 -119h246q-22 70 -22 158l-1 678q0 72 -9.5 125.5t-46.5 102.5q-36 49 -113.5 78.5t-205.5 29.5q-149 0 -235.5 -42.5t-120.5 -123t-34 -203.5h248q0 58 9 94q10 36 39 55q30 19 86 19q57 0 84.5 -11.5 t39.5 -47.5q6 -25 6 -45q0 -49 -33 -82q-32 -34 -104 -66q-112 -45 -168 -72t-107.5 -70t-82 -108t-30.5 -157zM142 1264h223l129 166l127 -166h228l-228 297h-256zM339 316q0 72 35 120t92 85t127 81v-123v-77q-1 -105 -26 -168.5t-108 -63.5q-69 0 -95 37q-25 37 -25 109z " />
<glyph unicode="&#xe3;" d="M74 312q0 -176 73 -258.5t230 -82.5q137 0 232 148h4q0 -82 16 -119h246q-22 70 -22 158l-1 678q0 72 -9.5 125.5t-46.5 102.5q-36 49 -113.5 78.5t-205.5 29.5q-149 0 -235.5 -42.5t-120.5 -123t-34 -203.5h248q0 58 9 94q10 36 39 55q30 19 86 19q57 0 84.5 -11.5 t39.5 -47.5q6 -25 6 -45q0 -49 -33 -82q-32 -34 -104 -66q-112 -45 -168 -72t-107.5 -70t-82 -108t-30.5 -157zM130 1248h125v2q0 75 95 75q51 0 103 -16q17 -6 54 -18.5t70 -21.5t52 -9q78 0 144 56t90 194h-134q-16 -84 -84 -84q-19 0 -41 5q-21 6 -45 14q-23 9 -49 18 q-66 26 -133 26q-100 -1 -169 -62.5t-78 -178.5zM339 316q0 72 35 120t92 85t127 81v-123v-77q-1 -105 -26 -168.5t-108 -63.5q-69 0 -95 37q-25 37 -25 109z" />
<glyph unicode="&#xe4;" d="M74 312q0 -176 73 -258.5t230 -82.5q137 0 232 148h4q0 -82 16 -119h246q-23 70 -23 158v678q0 72 -9.5 125.5t-46.5 102.5q-36 49 -113.5 78.5t-205.5 29.5q-149 0 -235.5 -42.5t-121 -123t-34.5 -203.5h248q0 58 10 94t39 55q30 19 86 19q57 0 84.5 -11.5t38.5 -47.5 q6 -25 6 -45q0 -49 -32.5 -82.5t-104.5 -65.5q-111 -45 -167 -72t-108 -70t-82 -108t-30 -157zM168 1309h260v227h-260v-227zM338 316q0 72 35.5 120t92 85t126.5 81v-123v-77q0 -105 -25 -168.5t-108 -63.5q-69 0 -95 37t-26 109zM559 1309h260v227h-260v-227z" />
<glyph unicode="&#xe5;" d="M74 312q0 -176 73 -258.5t230 -82.5q137 0 232 148h4q0 -82 16 -119h246q-22 70 -22 158l-1 678q0 72 -9.5 125.5t-46.5 102.5q-36 49 -113.5 78.5t-205.5 29.5q-149 0 -235.5 -42.5t-120.5 -123t-34 -203.5h248q0 58 9 94q10 36 39 55q30 19 86 19q57 0 84.5 -11.5 t39.5 -47.5q6 -25 6 -45q0 -49 -33 -82q-32 -34 -104 -66q-112 -45 -168 -72t-107.5 -70t-82 -108t-30.5 -157zM287 1499q0 -87 55 -151t152 -64q98 0 151 63q54 62 54 150q0 87 -54 151t-151 64t-152 -64t-55 -149zM339 316q0 72 35 120t92 85t127 81v-123v-77 q-1 -105 -26 -168.5t-108 -63.5q-69 0 -95 37q-25 37 -25 109zM380 1499q0 47 30 82t84 35q52 0 82 -35q31 -35 31 -82q0 -49 -31 -85q-30 -35 -82 -35q-54 0 -84 35.5t-30 84.5z" />
<glyph unicode="&#xe6;" horiz-adv-x="1403" d="M66 291q0 -175 88 -247.5t262 -72.5q196 0 266 121q55 -68 116 -94.5t159 -26.5q144 0 226.5 55.5t114 147t31.5 213.5h-268v-104q-6 -113 -104 -113q-75 0 -98 57t-23 148v45v102h489v297q-5 194 -100 274q-94 79 -262 79q-144 0 -234 -70q-123 76 -293 76 q-124 0 -216 -48q-92 -47 -121 -145q-29 -84 -29 -174h264q4 88 25 124q22 36 102 36q61 0 90 -20.5t29 -77.5q0 -49 -23 -80q-24 -30 -60 -50q-36 -19 -106 -49q-70 -29 -112 -53q-83 -48 -129 -92q-45 -44 -65 -104q-19 -60 -19 -154zM330 324q0 59 21 99t53 66t87 59 q55 34 81 54v-233q0 -102 -32 -150.5t-104 -48.5q-59 0 -82.5 35.5t-23.5 118.5zM836 723v117q15 131 119 131q51 0 78.5 -26.5t27.5 -104.5v-117h-225z" />
<glyph unicode="&#xe7;" horiz-adv-x="844" d="M70 396q0 -114 24 -195q23 -80 69.5 -131t112.5 -75t152 -24q186 0 271 93q86 93 86 276v109h-263v-108q-7 -91 -22 -129.5t-68 -41.5q-38 6 -59 23.5t-31 61t-10 126.5q0 10 1 33q1 22 1 35v264q0 137 16 197.5t82 60.5q84 0 90 -98v-129h263v92q0 68 -20 127t-63.5 107 t-112 75t-161.5 27q-169 0 -264 -91q-94 -90 -94 -313v-372zM164 -408q120 -53 229 -53q141 0 224 96q18 44 18 82q0 46 -22 86t-60.5 63t-85.5 23q-33 0 -76 -16l86 127h-108l-115 -183l39 -38q60 18 84 18t51 -10q37 -15 37 -53q0 -33 -27 -62t-61 -29q-66 0 -172 33z" />
<glyph unicode="&#xe8;" d="M99 453q0 -131 25 -222q23 -91 72.5 -148t128 -84.5t189.5 -27.5q188 0 274.5 104.5t86.5 307.5h-258q0 -112 -26.5 -162.5t-96.5 -50.5q-69 0 -103 37t-34 141v166h522v156q0 176 -27 281t-114 163t-261 58q-378 0 -378 -424v-295zM160 1567l299 -291h203l-189 291h-313 zM357 717v51q0 109 22 156t103 47q79 0 107 -32q29 -32 32 -120v-102h-264z" />
<glyph unicode="&#xe9;" d="M99 453q0 -131 25 -222q23 -91 72.5 -148t128 -84.5t189.5 -27.5q188 0 274.5 104.5t86.5 307.5h-258q0 -112 -26.5 -162.5t-96.5 -50.5q-69 0 -103 37t-34 141v166h522v156q0 176 -27 281t-114 163t-261 58q-378 0 -378 -424v-295zM326 1276h205l297 291h-314zM357 717 v51q0 109 22 156t103 47q79 0 107 -32q29 -32 32 -120v-102h-264z" />
<glyph unicode="&#xea;" d="M99 453q0 -131 25 -222q23 -91 72.5 -148t128 -84.5t189.5 -27.5q188 0 274.5 104.5t86.5 307.5h-258q0 -112 -26.5 -162.5t-96.5 -50.5q-69 0 -103 37t-34 141v166h522v156q0 176 -27 281t-114 163t-261 58q-378 0 -378 -424v-295zM142 1264h223l129 166l127 -166h228 l-228 297h-256zM357 717v51q0 109 22 156t103 47q79 0 107 -32q29 -32 32 -120v-102h-264z" />
<glyph unicode="&#xeb;" d="M99 453q0 -131 24 -222t73.5 -148t128 -84.5t189.5 -27.5q188 0 274.5 104.5t86.5 307.5h-258q0 -112 -26.5 -162.5t-96.5 -50.5q-69 0 -103 37t-34 141v166h522v156q0 176 -27 281t-114 163t-261 58q-378 0 -378 -424v-295zM168 1309h260v227h-260v-227zM357 717v51 q0 109 22 156t103 47q79 0 107 -32q29 -32 32 -120v-102h-264zM559 1309h260v227h-260v-227z" />
<glyph unicode="&#xec;" horiz-adv-x="514" d="M-70 1567l293 -291h205l-192 291h-306zM129 0h258v107v1036h-258v-109v-1034z" />
<glyph unicode="&#xed;" horiz-adv-x="514" d="M94 1276h199l299 291h-309zM129 0h258v107v1036h-258v-109v-1034z" />
<glyph unicode="&#xee;" horiz-adv-x="514" d="M-115 1263h226l125 167l129 -167h231l-235 298h-246zM129 0h258v107v1036h-258v-109v-1034z" />
<glyph unicode="&#xef;" horiz-adv-x="514" d="M-62 1308h251v228h-251v-228zM129 0h258v107v1036h-258v-109v-1034zM326 1308h254v228h-254v-228z" />
<glyph unicode="&#xf0;" d="M86 471q0 -185 32 -290.5t117.5 -157.5t246.5 -52q167 0 251 57.5t113.5 172.5t32.5 326q0 219 -14.5 376.5t-40 257.5t-63.5 162.5t-87 98.5l82 59l-90 90l-131 -90q-86 23 -172.5 30t-202.5 7v-164q127 -7 170 -16l-55 -37l86 -97l129 93q37 -16 56 -45q20 -29 43 -88 q-34 8 -107 8q-142 0 -224 -44t-118 -125t-45 -187t-9 -285v-60zM346 373v379q0 109 23 164t113 55t112.5 -55t22.5 -164v-379q0 -79 -9 -121t-38 -62t-88 -20q-61 0 -90 20t-37.5 60.5t-8.5 122.5z" />
<glyph unicode="&#xf1;" d="M115 0v1144l258 -1l4 -116q72 145 240 145q116 0 187 -71t71 -220v-881h-258v764q0 94 -22 139t-93 48q-129 0 -129 -216v-735h-258zM130 1247q9 118 78 179q69 62 169 63q67 0 133 -26q109 -37 135 -37q68 0 84 84h134q-24 -138 -90 -194t-144 -56q-35 0 -122 31 q-102 34 -157 34q-96 0 -96 -78h-124z" />
<glyph unicode="&#xf2;" d="M99 531q0 -157 15 -259q15 -101 56 -168q42 -68 120 -100q79 -33 208 -33q125 0 201.5 32.5t116.5 100t55 167.5q14 101 14 260q0 185 -9 288q-8 103 -43.5 184t-115.5 125t-219 44q-142 0 -223.5 -44t-118.5 -126t-46 -184.5t-11 -286.5zM160 1567l299 -291h203 l-189 291h-313zM357 373v379q0 109 23.5 164t117.5 55q88 0 109 -55q22 -55 22 -164v-379q0 -81 -8 -122t-35.5 -61t-87.5 -20q-64 0 -93.5 20t-38.5 62t-9 121z" />
<glyph unicode="&#xf3;" d="M99 531q0 -157 15 -259q15 -101 56 -168q42 -68 120 -100q79 -33 208 -33q125 0 201.5 32.5t116.5 100t55 167.5q14 101 14 260q0 185 -9 288q-8 103 -43.5 184t-115.5 125t-219 44q-142 0 -223.5 -44t-118.5 -126t-46 -184.5t-11 -286.5zM326 1276h205l297 291h-314z M357 373v379q0 109 23.5 164t117.5 55q88 0 109 -55q22 -55 22 -164v-379q0 -81 -8 -122t-35.5 -61t-87.5 -20q-64 0 -93.5 20t-38.5 62t-9 121z" />
<glyph unicode="&#xf4;" d="M99 531q0 -157 15 -259q15 -101 56 -168q42 -68 120 -100q79 -33 208 -33q125 0 201.5 32.5t116.5 100t55 167.5q14 101 14 260q0 185 -9 288q-8 103 -43.5 184t-115.5 125t-219 44q-142 0 -223.5 -44t-118.5 -126t-46 -184.5t-11 -286.5zM142 1264h223l129 166l127 -166 h227l-227 297h-256zM357 373v379q0 109 23.5 164t117.5 55q88 0 109 -55q22 -55 22 -164v-379q0 -81 -8 -122t-35.5 -61t-87.5 -20q-64 0 -93.5 20t-38.5 62t-9 121z" />
<glyph unicode="&#xf5;" d="M99 531q0 -157 15 -259q15 -101 56 -168q42 -68 120 -100q79 -33 208 -33q125 0 201.5 32.5t116.5 100t55 167.5q14 101 14 260q0 185 -9 288q-8 103 -43.5 184t-115.5 125t-219 44q-142 0 -223.5 -44t-118.5 -126t-46 -184.5t-11 -286.5zM129 1247h125q0 78 96 78 q51 0 103 -16q17 -6 54 -18.5t70 -21.5t52 -9q79 0 145 56t88 194h-133q-16 -84 -84 -84q-19 0 -41 5q-21 6 -45 14q-23 9 -49 18q-66 26 -133 26q-100 -1 -169 -63q-69 -61 -79 -179zM357 373v379q0 109 23.5 164t117.5 55q88 0 109 -55q22 -55 22 -164v-379q0 -81 -8 -122 t-35.5 -61t-87.5 -20q-64 0 -93.5 20t-38.5 62t-9 121z" />
<glyph unicode="&#xf6;" d="M99 531q0 -157 15 -259q15 -101 56 -168q42 -68 120 -100q79 -33 208 -33q125 0 201.5 32.5t116.5 100t55 167.5q14 101 14 260q0 185 -9 288q-8 103 -43.5 184t-115.5 125t-219 44q-142 0 -223.5 -44t-118.5 -126t-46 -184.5t-11 -286.5zM168 1309h261l-1 227h-260v-227 zM357 373v379q0 109 23.5 164t117.5 55q88 0 109 -55q22 -55 22 -164v-379q0 -81 -8 -122t-35.5 -61t-87.5 -20q-64 0 -93.5 20t-38.5 62t-9 121zM560 1309h259v227h-259v-227z" />
<glyph unicode="&#xf7;" d="M43 391h903v228h-903v-228zM365 13h256v229h-256v-229zM365 764h256v234h-256v-234z" />
<glyph unicode="&#xf8;" d="M4 -47l111 -72l104 160q90 -70 279 -70q125 0 201.5 32.5t116.5 100t55 167.5q14 101 14 260q0 175 -6 275t-31 171l131 203l-100 67l-103 -157q-97 82 -278 82q-142 0 -223.5 -44t-118.5 -126t-46 -184.5t-11 -286.5q0 -258 47 -381zM357 445v307q0 109 23.5 164 t117.5 55q68 0 96 -34.5t31 -96.5zM361 291l268 395v-313q0 -81 -8 -122t-35.5 -61t-87.5 -20q-71 0 -101 28.5t-36 92.5z" />
<glyph unicode="&#xf9;" d="M111 271q0 -104 19 -168q20 -65 74.5 -98.5t156.5 -33.5q93 0 151 48t92 151h5v-170h245v107v1036h-258v-743q0 -65 -6 -111.5t-33.5 -82.5t-83.5 -36q-69 0 -86.5 51t-17.5 140v782h-258v-872zM160 1567l299 -291h203l-189 291h-313z" />
<glyph unicode="&#xfa;" d="M111 271q0 -104 19 -168q20 -65 74.5 -98.5t156.5 -33.5q93 0 151 48t92 151h5v-170h245v107v1036h-258v-743q0 -65 -6 -111.5t-33.5 -82.5t-83.5 -36q-69 0 -86.5 51t-17.5 140v782h-258v-872zM326 1276h205l297 291h-314z" />
<glyph unicode="&#xfb;" d="M111 271q0 -104 19 -168q20 -65 74.5 -98.5t156.5 -33.5q93 0 151 48t92 151h5v-170h245v107v1036h-258v-743q0 -65 -6 -111.5t-33.5 -82.5t-83.5 -36q-69 0 -86.5 51t-17.5 140v782h-258v-872zM142 1288h223l129 166l127 -166h227l-227 291h-256z" />
<glyph unicode="&#xfc;" d="M111 271q0 -104 19 -168q20 -65 74.5 -98.5t156.5 -33.5q93 0 151 48t92 151h5v-170h245v107v1036h-258v-743q0 -65 -6 -111.5t-33.5 -82.5t-83.5 -36q-69 0 -86.5 51t-17.5 140v782h-258v-872zM168 1308h261l-1 228h-260v-228zM559 1308h260v228h-260v-228z" />
<glyph unicode="&#xfd;" horiz-adv-x="844" d="M-16 1143l25 -92l250 -1034q24 -81 24 -146q0 -54 -82 -54q-16 0 -38.5 2.5t-32.5 2.5v-205q73 -13 126 -13q86 0 137 26t79 74t39 87.5t48 191.5l33 124l244 1036h-268l-109 -616q-19 -99 -43 -297h-4q-6 54 -12 105q-5 51 -12 104t-15 96l-111 608h-278zM255 1276h205 l296 291h-311z" />
<glyph unicode="&#xfe;" d="M111 -381h246v500h4q48 -84 102 -114t137 -34q149 0 206 105t65 272v416q-6 225 -72 315t-199 93q-85 0 -137 -33t-90 -117h-4v500h-258v-868v-1035zM369 373v344q0 109 21 181.5t100 72.5q44 0 68.5 -17.5t35 -47t14.5 -78.5l5 -80v-379q-16 -199 -119 -199 q-125 0 -125 203z" />
<glyph unicode="&#xff;" horiz-adv-x="844" d="M-17 1143l25 -92l250 -1034q25 -81 25 -146q0 -54 -82 -54q-16 0 -39 3q-22 2 -33 2v-205q74 -13 127 -13q86 0 137 26t79 74t39 87.5t48 191.5l33 124l244 1036h-268l-109 -616q-19 -99 -43 -297h-4q-6 54 -12 105q-5 51 -12 104t-15 96l-111 608h-279zM99 1308h254v228 h-254v-228zM490 1308h256v228h-256v-228z" />
<glyph unicode="&#x152;" horiz-adv-x="1647" d="M109 707q0 -154 13 -276q14 -122 57.5 -229.5t133 -173t232.5 -65.5q30 0 80 22t101 63t85 98h4v-146h756v221h-494v469h461v222h-461v389h494v221h-747v-125l-5 4v-4h-4q-41 84 -115 122t-157 38q-242 0 -337 -200t-95 -476q0 -25 -1 -84q-1 -58 -1 -90zM387 649v99v104 q0 118 14 219t62.5 175t140.5 79q195 0 195 -243v-621q0 -87 -14 -145t-58 -91.5t-127 -33.5q-90 0 -137 71t-61.5 171t-14.5 216z" />
<glyph unicode="&#x153;" horiz-adv-x="1403" d="M70 531q0 -209 30 -327t116 -175.5t253 -57.5q59 0 125 25.5t117 79.5q42 -50 101.5 -77.5t121.5 -27.5q148 0 237.5 43t130.5 133q40 91 40 240h-265v-82q0 -135 -120 -135q-64 0 -88.5 47.5t-24.5 186.5v118h498v209q0 202 -99 334q-38 55 -105 83t-149 28 q-57 0 -110 -14t-97 -41t-71 -64q-60 63 -116 89t-126 26q-143 0 -225.5 -44t-119.5 -125.5t-45.5 -187t-8.5 -284.5zM334 436v162v154q0 121 28 170t93 49q71 0 96.5 -39.5t27.5 -142.5v-336v-51q0 -139 -28.5 -185.5t-95.5 -46.5q-48 3 -73 21q-24 17 -36 74t-12 171z M840 723v45q0 89 21 146t96 57q67 0 93.5 -41t26.5 -133v-74h-237z" />
<glyph unicode="&#x2c6;" horiz-adv-x="658" d="M-25 1309h225l130 166l125 -166h227l-227 291h-254z" />
<glyph unicode="&#x2dc;" horiz-adv-x="658" d="M-37 1293h127q0 73 93 73q41 0 104 -20q128 -41 174 -41q194 0 238 244h-136q-13 -80 -90 -80q-15 0 -36 4.5t-46 13t-45 14.5q-68 25 -133 25q-101 0 -171 -59.5t-79 -173.5z" />
<glyph unicode="&#x2000;" horiz-adv-x="984" />
<glyph unicode="&#x2001;" horiz-adv-x="1968" />
<glyph unicode="&#x2002;" horiz-adv-x="984" />
<glyph unicode="&#x2003;" horiz-adv-x="1968" />
<glyph unicode="&#x2004;" horiz-adv-x="656" />
<glyph unicode="&#x2005;" horiz-adv-x="492" />
<glyph unicode="&#x2006;" horiz-adv-x="328" />
<glyph unicode="&#x2007;" horiz-adv-x="328" />
<glyph unicode="&#x2008;" horiz-adv-x="246" />
<glyph unicode="&#x2009;" horiz-adv-x="393" />
<glyph unicode="&#x200a;" horiz-adv-x="109" />
<glyph unicode="&#x2010;" horiz-adv-x="658" d="M94 514h474v234h-474v-234z" />
<glyph unicode="&#x2011;" horiz-adv-x="658" d="M94 514h474v234h-474v-234z" />
<glyph unicode="&#x2012;" horiz-adv-x="658" d="M94 514h474v234h-474v-234z" />
<glyph unicode="&#x2013;" d="M-8 522h1004v222h-1004v-222z" />
<glyph unicode="&#x2014;" horiz-adv-x="1975" d="M-16 522h979h1028v222h-983h-1024v-222z" />
<glyph unicode="&#x2018;" horiz-adv-x="514" d="M133 1002h239v262h-128q0 179 128 199v90q-133 -23 -186 -96.5t-53 -213.5v-241z" />
<glyph unicode="&#x2019;" horiz-adv-x="514" d="M142 971q92 15 145 53.5t74.5 101t21.5 154.5v242h-241v-266h129q0 -175 -129 -195v-90z" />
<glyph unicode="&#x201c;" d="M164 1002h244v262h-125q0 97 31.5 143t93.5 56v90q-136 -23 -190 -96.5t-54 -213.5v-241zM559 1002h244v262h-129q0 93 32 141.5t97 57.5v90q-91 -16 -144 -54.5t-76.5 -101.5t-23.5 -154v-241z" />
<glyph unicode="&#x201d;" d="M180 971q93 15 147.5 54t77.5 101q23 63 23 154v242h-248v-266h129q0 -96 -31.5 -140.5t-97.5 -54.5v-90zM575 971q136 23 190 96t54 213v242h-244v-266h132q0 -176 -132 -195v-90z" />
<glyph unicode="&#x201e;" d="M185 4h124q0 -88 -24 -130.5t-100 -60.5v-96q94 23 146 60t74.5 96t22.5 152v246h-243v-267zM575 4h132q0 -81 -30 -127q-29 -46 -102 -64v-96q97 23 149 60q53 36 74 94.5t21 153.5v246h-244v-267z" />
<glyph unicode="&#x2022;" horiz-adv-x="795" d="M20 756q0 -103 50 -190t134.5 -138t186.5 -51q105 0 193.5 51t140.5 138q51 88 51 190q0 105 -51.5 194t-140 140t-193.5 51q-102 0 -187 -51t-134 -140q-50 -88 -50 -194z" />
<glyph unicode="&#x2026;" horiz-adv-x="1975" d="M185 0h267v271h-267v-271zM854 0h269v271h-269v-271zM1522 0h266v271h-266v-271z" />
<glyph unicode="&#x202f;" horiz-adv-x="393" />
<glyph unicode="&#x2039;" horiz-adv-x="514" d="M99 412l309 -285v226l-188 174l188 151v225l-309 -280v-211z" />
<glyph unicode="&#x203a;" horiz-adv-x="514" d="M106 127l318 285v211l-318 280v-225l187 -160l-187 -165v-226z" />
<glyph unicode="&#x205f;" horiz-adv-x="492" />
<glyph unicode="&#x2122;" horiz-adv-x="1686" d="M-21 1362h230v-659h160v659h235v160h-625v-160zM686 703h162v659h4l209 -659h94l213 659h4v-659h162v819h-260l-160 -488l-163 488h-265v-819z" />
<glyph unicode="&#xe000;" horiz-adv-x="1145" d="M0 0v1145h1145v-1145h-1145z" />
</font>
</defs></svg> 